<svg xmlns="http://www.w3.org/2000/svg" viewBox="0 0 32 32">
 <g transform="translate(0,-1020.3622)">
  <path d="m 4 2 c -0.589 0 -1 0.383 -1 1 l 0 14 c 0 1 0.5 1.5 1.5 1.5 l 23.5 0 1 0 l 0 -12.5 -4 -4 z" transform="translate(0,1020.3622)" style="fill:#e3e1cf;fill-opacity:1;stroke:none"/>
  <rect width="30" height="15" x="1" y="1034.36" rx="2" style="fill:#fce8c3;fill-opacity:1;stroke:none"/>
  <path d="m 3 14 c -1.108 0 -2 0.892 -2 2 l 0 2 c 0 -1.108 0.892 -2 2 -2 l 26 0 c 1.108 0 2 0.892 2 2 l 0 -2 c 0 -1.108 -0.892 -2 -2 -2 l -26 0 z" transform="translate(0,1020.3622)" style="fill:#fff;opacity:0.1;fill-opacity:1;stroke:none"/>
  <path d="m 25 1022.36 0 4 4 0 z" style="fill:#fff;fill-opacity:1;stroke:none"/>
  <path d="m 29 1030.36 0 -4 -4 0 z" style="fill:#000;opacity:0.2;fill-opacity:1;stroke:none"/>
  <rect width="16" height="2" x="6" y="1024.36" rx="1" style="fill:#a1a195;fill-opacity:1;stroke:none"/>
  <rect rx="1" y="1027.36" x="6" height="2" width="18" style="fill:#a1a195;fill-opacity:1;stroke:none"/>
  <rect width="18" height="2" x="6" y="1030.36" rx="1" style="fill:#a1a195;fill-opacity:1;stroke:none"/>
 </g>
</svg>
