/* XPM */
static char * title_3_active_xpm[] = {
"2 26 3 1",
" 	c None",
".	c #baa67f",
"+	c #1c1b19",
"..",
"++",
"++",
"++",
"++",
"++",
"++",
"++",
"++",
"++",
"++",
"++",
"++",
"++",
"++",
"++",
"++",
"++",
"++",
"++",
"++",
"++",
"++",
"++",
"++",
"++"};
