<svg xmlns="http://www.w3.org/2000/svg" width="20" height="37">
 <defs>
  <clipPath>
   <rect y="1015.36" x="20" height="37" width="20" opacity="0.12" fill="#baa67f" color="#fce8c3"/>
  </clipPath>
  <clipPath>
   <rect y="1033.36" x="20" height="19" width="10" opacity="0.12" fill="#baa67f" color="#fce8c3"/>
  </clipPath>
 </defs>
 <g transform="translate(0,-1015.3622)">
  <g transform="matrix(2,0,0,1.4999968,0,-530.67775)">
   <rect rx="1" y="1039.36" x="2" height="8" width="4" fill="#1c1b19"/>
  </g>
 </g>
</svg>
