<svg xmlns="http://www.w3.org/2000/svg" width="10" height="19">
 <defs>
  <clipPath>
   <rect width="10" height="19" x="20" y="1033.36" opacity="0.12" fill="#baa67f" color="#fce8c3"/>
  </clipPath>
 </defs>
 <g transform="translate(0,-1033.3622)">
  <path d="m 4.5,1039.3622 c -0.277,0 -0.5,0.223 -0.5,0.5 l 0,7 c 0,0.277 0.223,0.5 0.5,0.5 l 3,0 c 0.277,0 0.5,-0.223 0.5,-0.5 l 0,-7 c 0,-0.277 -0.223,-0.5 -0.5,-0.5 l -3,0 z m 0.5,1 2,0 0,6 -2,0 0,-6 z" fill="#1c1b19"/>
 </g>
</svg>
