<svg xmlns="http://www.w3.org/2000/svg" viewBox="0 0 48 48">
 <g transform="translate(0,-1004.3622)">
  <path d="M 9,5 C 7.892,5 7,5.892 7,7 l 0,16 c 0,1.108 0.892,2 2,2 l 30,0 c 1.108,0 2,-0.892 2,-2 L 41,9 37,5 z" transform="translate(0,1004.3622)" style="fill:#e3e1cf;fill-opacity:1;stroke:none"/>
  <rect width="42" height="20" x="3" y="1024.36" rx="2" style="fill:#fce8c3;fill-opacity:1;stroke:none"/>
  <path d="m 5 1024.36 c -1.108 0 -2 0.892 -2 2 l 0 1 c 0 -1.108 0.892 -2 2 -2 l 38 0 c 1.108 0 2 0.892 2 2 l 0 -1 c 0 -1.108 -0.892 -2 -2 -2 l -38 0 z" style="fill:#fff;opacity:0.1;fill-opacity:1;stroke:none"/>
  <path d="m 37 1009.36 0 4 4 0 z" style="fill:#fff;fill-opacity:1;stroke:none"/>
  <path d="m 41 1017.36 0 -4 -4 0 z" style="fill:#000;opacity:0.2;fill-opacity:1;stroke:none"/>
  <rect width="24" height="2" x="10" y="1012.36" rx="1" style="fill:#a1a195;opacity:1;fill-opacity:1;stroke:none"/>
  <rect rx="1" y="1016.36" x="10" height="2" width="28" style="fill:#a1a195;opacity:1;fill-opacity:1;stroke:none"/>
  <rect width="28" height="2" x="10" y="1020.36" rx="1" style="fill:#a1a195;opacity:1;fill-opacity:1;stroke:none"/>
  <g transform="translate(3.7562607e-7,-2.5e-5)">
   <path d="m 42.998 1036.86 c 0.068 3.37 -1.726 6.514 -4.695 8.219 -2.965 1.706 -6.641 1.706 -9.61 0 -2.969 -1.706 -4.763 -4.849 -4.691 -8.219 -0.072 -3.373 1.722 -6.517 4.691 -8.223 2.969 -1.706 6.645 -1.706 9.61 0 2.969 1.706 4.763 4.849 4.695 8.223 z" style="fill:#859900;fill-rule:evenodd"/>
   <path d="m 38.695 1030.89 c -0.201 0.071 -0.373 0.207 -0.487 0.384 l -5.178 5.01 -3.231 -3.083 c -0.129 -0.425 -0.536 -0.712 -0.988 -0.689 -0.449 0.026 -0.821 0.354 -0.905 0.791 -0.08 0.441 0.156 0.877 0.57 1.054 l 3.893 3.855 c 0.373 0.346 0.95 0.346 1.323 0 l 5.839 -5.783 c 0.228 -0.297 0.258 -0.704 0.08 -1.035 -0.179 -0.331 -0.54 -0.527 -0.916 -0.505 z" style="fill:#fff"/>
  </g>
 </g>
</svg>
